{
  "realm": "pagadores",
  "auth-server-url": "https://key-desa.peypertic.com/auth",
  "ssl-required": "external",
  "bearerOnly":true,
  "resource": "cointic.auth",
  "credentials": {
    "secret": "8a13c1d6-e283-4d7f-b800-24ae23345920"
  },
  "use-resource-role-mappings": true
}

